…
### 3. Group similar sports into a Sport Type field

``` r
#Inspecting Sport column - 64 sports
event_schedule_clean_2_tbl %>%
  count(Sport) 
```

    ## # A tibble: 64 x 2
    ##    Sport                   n
    ##    <chr>               <int>
    ##  1 3x3 Basketball         36
    ##  2 Archery                39
    ##  3 Artistic Gymnastic      1
    ##  4 Artistic Gymnastics    26
    ##  5 Artistic Swimming       5
    ##  6 Athletics             146
    ##  7 Badminton              64
    ##  8 Baseball               16
    ##  9 Baseball/Softball       8
    ## 10 Basketball             54
    ## # … with 54 more rows
…
