…
event_schedule_clean_1_tbl
```

    ## # A tibble: 709 x 4
    ##    Sport      Venue          Events                          Date               
    ##    <chr>      <chr>          <chr>                           <dttm>             
    ##  1 Baseball/… Fukushima Azu… Australia vs Japan, Italy vs U… 2021-07-21 01:00:00
    ##  2 Football   Sapporo Dome   Women's Group E: Great Britain… 2021-07-21 08:30:00
    ##  3 Football   Miyagi Stadium Women's Group F: China vs Braz… 2021-07-21 09:00:00
    ##  4 Football   Tokyo Stadium  Women's Group G: Sweden vs Uni… 2021-07-21 09:30:00
    ##  5 Baseball/… Fukushima Azu… United States vs Canada, Mexic… 2021-07-22 01:00:00
    ##  6 Football   Sapporo Dome   Men's Group C: Egypt vs Spain,… 2021-07-22 08:30:00
    ##  7 Football   Ibaraki Kashi… Men's Group B: New Zealand vs … 2021-07-22 09:00:00
    ##  8 Football   Tokyo Stadium  Men's Group A: Mexico vs Franc… 2021-07-22 09:00:00
    ##  9 Football   Ibaraki Kashi… Men's Group D: Côte d'Ivoire v… 2021-07-22 09:30:00
    ## 10 Rowing     Sea Forest Wa… Men's Single Sculls Heats, Wom… 2021-07-23 00:30:00
    ## # … with 699 more rows
### 2. Parse the event list so each event is on a separate row

``` r
event_schedule_clean_2_tbl <- event_schedule_clean_1_tbl %>%
  # Separate events into different rows
  separate_rows(Events, 
                sep = ',',
                convert = TRUE) %>%
  # Trim spaces on Events
  mutate(Events = str_trim(Events))

event_schedule_clean_2_tbl
```

    ## # A tibble: 1,895 x 4
    ##    Sport        Venue               Events                   Date               
    ##    <chr>        <chr>               <chr>                    <dttm>             
    ##  1 Baseball/So… Fukushima Azuma Ba… Australia vs Japan       2021-07-21 01:00:00
    ##  2 Baseball/So… Fukushima Azuma Ba… Italy vs United States   2021-07-21 01:00:00
    ##  3 Baseball/So… Fukushima Azuma Ba… Mexico vs Canada         2021-07-21 01:00:00
    ##  4 Football     Sapporo Dome        Women's Group E: Great … 2021-07-21 08:30:00
    ##  5 Football     Sapporo Dome        Women's Group E: Japan … 2021-07-21 08:30:00
    ##  6 Football     Miyagi Stadium      Women's Group F: China … 2021-07-21 09:00:00
    ##  7 Football     Miyagi Stadium      Women's Group F: Zambia… 2021-07-21 09:00:00
    ##  8 Football     Tokyo Stadium       Women's Group G: Sweden… 2021-07-21 09:30:00
    ##  9 Football     Tokyo Stadium       Women's Group G: Austra… 2021-07-21 09:30:00
    ## 10 Baseball/So… Fukushima Azuma Ba… United States vs Canada  2021-07-22 01:00:00
    ## # … with 1,885 more rows

### 3. Group similar sports into a Sport Type field

``` r
#Inspecting Sport column - 64 sports
event_schedule_clean_2_tbl %>%
  count(Sport) 
```

    ## # A tibble: 64 x 2
    ##    Sport                   n
    ##    <chr>               <int>
    ##  1 3x3 Basketball         36
    ##  2 Archery                39
    ##  3 Artistic Gymnastic      1
    ##  4 Artistic Gymnastics    26
    ##  5 Artistic Swimming       5
    ##  6 Athletics             146
    ##  7 Badminton              64
    ##  8 Baseball               16
    ##  9 Baseball/Softball       8
    ## 10 Basketball             54
    ## # … with 54 more rows
…
event_schedule_clean_3_tbl
```

    ## # A tibble: 1,895 x 5
    ##    Sport      Venue          Events            Date                Sport_Group  
    ##    <chr>      <chr>          <chr>             <dttm>              <chr>        
    ##  1 Baseball/… Fukushima Azu… Australia vs Jap… 2021-07-21 01:00:00 Baseball/Sof…
    ##  2 Baseball/… Fukushima Azu… Italy vs United … 2021-07-21 01:00:00 Baseball/Sof…
    ##  3 Baseball/… Fukushima Azu… Mexico vs Canada  2021-07-21 01:00:00 Baseball/Sof…
    ##  4 Football   Sapporo Dome   Women's Group E:… 2021-07-21 08:30:00 Football     
    ##  5 Football   Sapporo Dome   Women's Group E:… 2021-07-21 08:30:00 Football     
    ##  6 Football   Miyagi Stadium Women's Group F:… 2021-07-21 09:00:00 Football     
    ##  7 Football   Miyagi Stadium Women's Group F:… 2021-07-21 09:00:00 Football     
    ##  8 Football   Tokyo Stadium  Women's Group G:… 2021-07-21 09:30:00 Football     
    ##  9 Football   Tokyo Stadium  Women's Group G:… 2021-07-21 09:30:00 Football     
    ## 10 Baseball/… Fukushima Azu… United States vs… 2021-07-22 01:00:00 Baseball/Sof…
    ## # … with 1,885 more rows
### 4. Combine the Venue table

``` r
event_schedule_clean_4_tbl <- event_schedule_clean_3_tbl %>%
  #Joining by Sport and Venue (Both tables have the same field names)
  left_join(venue_details_tbl)
```

    ## Joining, by = c("Sport", "Venue")

``` r
event_schedule_clean_4_tbl
```

    ## # A tibble: 1,895 x 6
    ##    Sport   Venue      Events       Date                Sport_Group  Location    
    ##    <chr>   <chr>      <chr>        <dttm>              <chr>        <chr>       
    ##  1 Baseba… Fukushima… Australia v… 2021-07-21 01:00:00 Baseball/So… 37.72216480…
    ##  2 Baseba… Fukushima… Italy vs Un… 2021-07-21 01:00:00 Baseball/So… 37.72216480…
    ##  3 Baseba… Fukushima… Mexico vs C… 2021-07-21 01:00:00 Baseball/So… 37.72216480…
    ##  4 Footba… Sapporo D… Women's Gro… 2021-07-21 08:30:00 Football     43.01517544…
    ##  5 Footba… Sapporo D… Women's Gro… 2021-07-21 08:30:00 Football     43.01517544…
    ##  6 Footba… Miyagi St… Women's Gro… 2021-07-21 09:00:00 Football     38.33557331…
    ##  7 Footba… Miyagi St… Women's Gro… 2021-07-21 09:00:00 Football     38.33557331…
    ##  8 Footba… Tokyo Sta… Women's Gro… 2021-07-21 09:30:00 Football     35.66446761…
    ##  9 Footba… Tokyo Sta… Women's Gro… 2021-07-21 09:30:00 Football     35.66446761…
    ## 10 Baseba… Fukushima… United Stat… 2021-07-22 01:00:00 Baseball/So… 37.72216480…
    ## # … with 1,885 more rows

### 5. Calculate whether the event is a ‘Victory Ceremony’ or ‘Gold Medal’ event. (Note, this might not pick up all of the medal events.)

``` r
event_type <- 'Victory Ceremony|Gold Medal' 

event_schedule_clean_5_tbl <- event_schedule_clean_4_tbl %>%
  mutate(Medal_Ceremony = str_detect(event_schedule_clean_4_tbl$Events, event_type)) 

event_schedule_clean_5_tbl
```

    ## # A tibble: 1,895 x 7
    ##    Sport  Venue  Events  Date                Sport_Group Location Medal_Ceremony
    ##    <chr>  <chr>  <chr>   <dttm>              <chr>       <chr>    <lgl>         
    ##  1 Baseb… Fukus… Austra… 2021-07-21 01:00:00 Baseball/S… 37.7221… FALSE         
    ##  2 Baseb… Fukus… Italy … 2021-07-21 01:00:00 Baseball/S… 37.7221… FALSE         
    ##  3 Baseb… Fukus… Mexico… 2021-07-21 01:00:00 Baseball/S… 37.7221… FALSE         
    ##  4 Footb… Sappo… Women'… 2021-07-21 08:30:00 Football    43.0151… FALSE         
    ##  5 Footb… Sappo… Women'… 2021-07-21 08:30:00 Football    43.0151… FALSE         
    ##  6 Footb… Miyag… Women'… 2021-07-21 09:00:00 Football    38.3355… FALSE         
    ##  7 Footb… Miyag… Women'… 2021-07-21 09:00:00 Football    38.3355… FALSE         
    ##  8 Footb… Tokyo… Women'… 2021-07-21 09:30:00 Football    35.6644… FALSE         
    ##  9 Footb… Tokyo… Women'… 2021-07-21 09:30:00 Football    35.6644… FALSE         
    ## 10 Baseb… Fukus… United… 2021-07-22 01:00:00 Baseball/S… 37.7221… FALSE         
    ## # … with 1,885 more rows

### Extra: Split Location into Latitude, Longitude

``` r
event_schedule_clean_6_tbl <- event_schedule_clean_5_tbl %>%
  separate(Location, into = c('Latitude', 'Longitude'), sep = ',') %>%
  mutate(Longitude = str_trim(Longitude)) %>%
  select(Date, Sport_Group, Sport, Events, Medal_Ceremony,Venue, Latitude, Longitude)

event_schedule_clean_6_tbl
```

    ## # A tibble: 1,895 x 8
    ##    Date                Sport_Group  Sport  Events  Medal_Ceremony Venue Latitude
    ##    <dttm>              <chr>        <chr>  <chr>   <lgl>          <chr> <chr>   
    ##  1 2021-07-21 01:00:00 Baseball/So… Baseb… Austra… FALSE          Fuku… 37.7221…
    ##  2 2021-07-21 01:00:00 Baseball/So… Baseb… Italy … FALSE          Fuku… 37.7221…
    ##  3 2021-07-21 01:00:00 Baseball/So… Baseb… Mexico… FALSE          Fuku… 37.7221…
    ##  4 2021-07-21 08:30:00 Football     Footb… Women'… FALSE          Sapp… 43.0151…
    ##  5 2021-07-21 08:30:00 Football     Footb… Women'… FALSE          Sapp… 43.0151…
    ##  6 2021-07-21 09:00:00 Football     Footb… Women'… FALSE          Miya… 38.3355…
    ##  7 2021-07-21 09:00:00 Football     Footb… Women'… FALSE          Miya… 38.3355…
    ##  8 2021-07-21 09:30:00 Football     Footb… Women'… FALSE          Toky… 35.6644…
    ##  9 2021-07-21 09:30:00 Football     Footb… Women'… FALSE          Toky… 35.6644…
    ## 10 2021-07-22 01:00:00 Baseball/So… Baseb… United… FALSE          Fuku… 37.7221…
    ## # … with 1,885 more rows, and 1 more variable: Longitude <chr>
…
