…
``` r
athletes  %>%
  count(country)
```

    ## # A tibble: 138 × 2
    ##    country                   n
    ##    <chr>                 <int>
    ##  1 -                        39
    ##  2 ABELS S.                  1
    ##  3 ADAMIK Malgozata          2
    ##  4 AHRENSTRAND Annelie       1
    ##  5 AKINS Missy               1
    ##  6 AMORIM Marcelo            1
    ##  7 ANDERSSON Eva             1
    ##  8 ANDERSSON Lars-Gunnar     1
    ##  9 Australia               361
    ## 10 Austria                  62
    ## # … with 128 more rows
…
